<svg xmlns="http://www.w3.org/2000/svg" viewBox="0 0 32 51" width="32" height="51">
	<style>
		tspan { white-space:pre }
		.shp0 { fill: #ffffff } 
	</style>
	<path id="Shape 9" class="shp0" d="M19.07 23.57L16.62 19.61L15.05 26L20.63 35.91L20.63 50L16.62 50L16.62 38.99L11.48 32.16L5.02 50L1 50L9.7 16.09L5.02 17.63L5.02 25.78L1 25.78L1 14.33L13.05 10.58C13.49 10.36 13.72 10.36 14.16 10.36C15.5 10.36 16.84 11.24 17.51 12.34L21.97 19.61L30 19.61L30 23.57L19.07 23.57ZM18.85 9.92C16.62 9.92 14.83 8.16 14.83 5.96C14.83 3.75 16.62 1.99 18.85 1.99C21.08 1.99 22.86 3.75 22.86 5.96C22.86 8.16 21.08 9.92 18.85 9.92Z" />
</svg>