<svg xmlns="http://www.w3.org/2000/svg" viewBox="0 0 51 52" width="51" height="52">
	<style>
		tspan { white-space:pre }
		.shp0 { fill: #ffffff } 
	</style>
	<path id="Shape 8" class="shp0" d="M48.86 33.84L44.06 42.29C43.82 42.77 43.1 43.01 42.63 42.77L36.63 40.36C35.43 41.32 33.99 42.05 32.55 42.77L31.59 49.04C31.59 49.53 30.88 50.01 30.4 50.01L20.8 50.01C20.08 50.01 19.6 49.53 19.6 49.04L18.65 42.77C17.21 42.05 15.77 41.32 14.57 40.36L8.57 42.77C7.85 43.01 7.38 42.77 7.14 42.53L2.34 34.09C2.1 33.6 2.1 33.12 2.58 32.64L7.61 28.54C7.38 27.81 7.38 27.09 7.38 26.12C7.38 25.16 7.61 24.43 7.61 23.71L2.58 19.85C2.1 19.37 1.86 18.64 2.1 18.4L6.9 9.96C7.38 9.48 7.85 9.24 8.57 9.48L14.33 11.89C15.77 10.92 16.97 9.96 18.41 9.48L19.36 2.96C19.36 2.48 20.08 2 20.56 2L30.16 2C30.64 2 31.35 2.48 31.11 3.2L32.07 9.48C33.51 10.2 34.95 10.92 36.15 11.89L42.15 9.48C42.86 9.24 43.34 9.48 43.58 9.72L48.38 18.16C48.62 18.64 48.62 19.13 48.14 19.61L43.1 23.71C43.34 24.43 43.34 25.16 43.34 26.12C43.34 27.09 43.1 27.81 43.1 28.54L48.62 32.4C49.1 32.64 49.1 33.36 48.86 33.84ZM25.36 17.68C20.8 17.68 16.97 21.54 16.97 26.12C16.97 30.71 20.8 34.57 25.36 34.57C29.92 34.57 33.75 30.71 33.75 26.12C33.75 21.54 29.92 17.68 25.36 17.68Z" />
</svg>